@startuml
	header Proyect Alrequin
	footer Author: Joaquín Reyes Sánchez [hakyn seyer] (joaquin.seyer21@gmail.com)

	title UML Data Base

	skinparam Padding 2
	skinparam class {
		BackgroundColor White
		ArrowColor MediumVioletRed
		BorderColor MediumVioletRed
	}
	skinparam ClassFontSize 18
	skinparam NoteBackgroundColor PaleVioletRed
	skinparam NoteFontSize 9

	class user << (U, white) >> {
		+ id: <b>Int | AI PK
		+ name: <b>String [25] | NN
		+ surname: <b>String [15] | NN
		+ second_surname: <b>String [15] | NN
		+ alias: <b>String [15] | NN UQ
		+ image: <b>String [255] | UQ 
		<i> The route for the access to image
	}
	note top: This table represents the basic information of any user

	class extra <<E, White>>  {
		+ id: <b>Int | AI PK
		+ user: <b>Int | NN UQ 
		+ email: <b>String [50] | NN UQ
		+ phone: <b>String [10] | UQ
		<i> All phone numbers must have 10 digits
		--
		<i><b> Possible Fields
		+ address <b>String [255]
		+ rank <b>Enum [List] | NN
		<i> List: visitor, reader, writer
	}
	note top: This table represents the additional information of a registered user

	user::id -> extra::user
@enduml
